C:\Users\SouthSystem\CrudConta\src\main\java\br\com\crud_conta\util\LocalDateParser.java
C:\Users\SouthSystem\CrudConta\src\main\java\br\com\crud_conta\service\EntityNotFound.java
C:\Users\SouthSystem\CrudConta\src\main\java\br\com\crud_conta\domain\BaseDominio.java
C:\Users\SouthSystem\CrudConta\src\main\java\br\com\crud_conta\util\ApiError.java
C:\Users\SouthSystem\CrudConta\src\main\java\br\com\crud_conta\repository\ContaRepository.java
C:\Users\SouthSystem\CrudConta\src\main\java\br\com\crud_conta\rest\ContaController.java
C:\Users\SouthSystem\CrudConta\src\main\java\br\com\crud_conta\domain\Conta.java
C:\Users\SouthSystem\CrudConta\src\main\java\br\com\crud_conta\model\ContaResponse.java
C:\Users\SouthSystem\CrudConta\src\main\java\br\com\crud_conta\service\NotFound.java
C:\Users\SouthSystem\CrudConta\src\main\java\br\com\crud_conta\util\MapperConfig.java
C:\Users\SouthSystem\CrudConta\src\main\java\br\com\crud_conta\util\SwaggerConfig.java
C:\Users\SouthSystem\CrudConta\src\main\java\br\com\crud_conta\util\CustomRestExceptionHandler.java
C:\Users\SouthSystem\CrudConta\src\main\java\br\com\crud_conta\domain\DominioInvalidoException.java
C:\Users\SouthSystem\CrudConta\src\main\java\br\com\crud_conta\CrudContaApplication.java
C:\Users\SouthSystem\CrudConta\src\main\java\br\com\crud_conta\service\ContaService.java
C:\Users\SouthSystem\CrudConta\src\main\java\br\com\crud_conta\model\ContaRequest.java
